{
    "hashes": {
        "CHANGELOG.md": "cb9dc956a15044ed67f2450bfe8da5ca2d5264b1f6158b5996e38869810ff5abff9e982c1b45b3922d80042103b7bb448d257a35fb165390570f17975ceff32c",
        "README.md": "ff5f35f07166c7a88adee316df5f91cc3d42568fc053663c7e02e73c5d532ef06b522f58ff071aa46719e6a1b0d796b23f201880a0c24eeb080a4622ba391e78",
        "appinfo\/app.php": "ebbd73e18afe0108844f13e36258b719f5c34e06bfa9521fc27bec2de3c01377dbd6a0be8fa014dca9d9f1a908181139cd52bc2c07268b4ba42bc03c731333c4",
        "appinfo\/database.xml": "3998f0405e3cf1ead86211c8c6632b4d746a6928d65322a1b93de2ad3fb4753e6a0cfe020c00e71764187502e51e610b6bdd5d1f54586563e7f03188789f79c2",
        "appinfo\/info.xml": "faf5df21339ad410f66756782ff35420ff3d232af1139d57f97441d52d91d908f7bfbe6b363f5a113646b51d4e9b5c7d227c30c408071eb463875b533c098d94",
        "appinfo\/routes.php": "d5d2ad596889ebabd73dbad37fa4050613ce6679ee6d1bab16ce19217fac2c47987c91008d82b8deeefb8006ba0a06796a4dfa7de097b8957a37a38c9f5bbd98",
        "assets\/document.ott": "cf8035ad766cec93445effe4aced203b3eec6a0d0e0cc05232551eb351ee392d63f29677563869b6f6675c7eebeb495377551670ecb9996a7e3d32a739f01e5d",
        "assets\/docxtemplate.docx": "a7ee5cb0ac06072b6f739ab7b8f83e69a435cad6b972be2a53b444f44d28882ae173f0fde5dac2ab52808fdfe70b8cbd8a59efeb23e35818ffcd6abe6e4502ee",
        "assets\/odttemplate.odt": "b35b2fb129b4a6e2f4c55d77ce06fee4668017963013fa76e3599b516e1dc9fbb5c5d5d5077522a6ad7d6951415ec8d6c1da365b6ad2e819789883da61c32397",
        "assets\/pptxtemplate.pptx": "ec331e9cac22db004e315c312ab9c2a24baf42c8e76671a0be62d3155121783a9ba2261e938951fe66d2113ec3a99cc3f0c53484432836b753f2ec29ba45f203",
        "assets\/presentation.otp": "e6740a0d34dcc9d6816c7fbee0f42b2910b5a2a9f17c3d237101e5c7b7ec1051f479dd56fb27279b1a510734bdbb7baa4cab3fc8ec6a68bd9a1de1f3722179ea",
        "assets\/spreadsheet.ots": "9583711f6b9bc6bcf34c027583177e14ad01f46ed6d27df69b728b918801b419dc751fe9f1a960c83e9b8f8514b0438e663502f44cc4294a9546e00991b619b2",
        "assets\/template.odp": "9401376cce4afda9f95ef814adae3bf0176459ac1089f8bc124359edef1c18f0518e34efd5c0750945aa21cdcc3a1770849082b47cc5d727e4e502c27b2965f8",
        "assets\/template.ods": "275c1edaab1351e7ee711ed20d67051684507f1d2b456694e43e053885cb092fa255fd2315f8b94240fb4321dcaaf897c397b936b08df8a41f223b09f0ca7b0d",
        "assets\/template.odt": "bd1990bc812fc2299a33b507c5d78fb533f14c64529362a6134819b0dacc86bf37b1a37126bb1096e1a05c2b759dd98dd539fa2547d045ce8e42ea7754142e87",
        "assets\/xlsxtemplate.xlsx": "05b292ff9b2448f9535bf6be129b0f03295fcd66a7dca1fbdb975637c063edddc84fc137f01fd50e6a25a33f71ca52bd4e1274a3e418dce164a9ab3da0d8fd6e",
        "css\/admin.scss": "25ec34c2504c3a8e1094742c86dd21b6226aab1bdb545c4d880ff2edbb3ab41aa305c430811c0e1de9c17bf39344ac8eeecbb61bfb8566c7f1994b9cf0546d5b",
        "css\/mobile.css": "af4d80dde0f2e8f3b459dee4d5ab11ebaa9e874d798be899d9468b9fb6049a811b32e83fd1495c4113fbbdaea81988819e056568835cce0ef654322a377ede88",
        "css\/style.css": "d8224139e2755a2f2ae6074b58fbf1f4a2db76ccc6fe97a31f4945013367df2c104c3b0099df381b006c2d6499f52919bca698ca598bfc36b99f0c7db03efa20",
        "css\/templatePicker.scss": "915b422b081f1878a7bb07f89a5ec92d963492c7988c0b6b3a3da0917830fcefc3014a0e0f36af2df207ce51d47056ebbafe21699a1e0be1998db4e9b2a750c6",
        "css\/viewer.scss": "c571d3e56d015d7f4cce848d20d0979df769f9ab97ff968404271ec9994de849d52b771e06ef660d21bbde8828c6494026db24e4ac30ed138250c4a1e65dd263",
        "docs\/_config.yml": "e44bf13b24e6d06a320ce7ff9f7e388fc9f985f01ee68f4f65144750aa17af199209448ec337e2d0a5a7290860e7b0db90aeefa1ebf32994e1921e2e85d92147",
        "docs\/app_settings.md": "3aa788ea5fd3f26719328538058a196e9951eae3ca0b65e4d6a0004ad8094d7edbc8ddcb54ce030db4fd655f28dea96694346bccc59284f5722b5556aea64d40",
        "docs\/asset_api.md": "c2ae47afd3a7e08d38bc6f8c67016a4184402772f54095c98051fe2587523103f530492a1983336bd753a7251fb249fff2f5972c1ba3dc766772cd7b84b54253",
        "docs\/mobile_editor.md": "9295b7b394779dfb4664757f2d937ca9b3541fe855238b8f5ebb866c8f6bd0b8f6b98ae8881a9fcfa46a4e952e32bce419e854a2ecff50b2dd38858bfe2ef878",
        "docs\/mobile_flow.md": "8257e0fda3e0261ca361aaac049cc0a82bbff45e5623c5236fb954e4e52b5c238e464b38b4a5cbfd5a434cf65f75dbb183e02f5630455b23588e3bba63f8ff75",
        "docs\/templates.md": "e8c087bb8d9025d1210effc26d5e60053c38c147f296028de5a58437ae56ef58dc9187f1ec052231316441087fe7f7a0398846f991ee58c4341ebc3b06cde846",
        "img\/app-dark.svg": "5f11c3b8a3fe0d9cc154dd59f9dac8031b8325ca6119e0ab7fdbaf5c9ac552992fe42c92efb0cf7bce67dc5ea6578a32ded42a77ae510b8afbd87450a7fbf4c1",
        "img\/app.png": "1dd481fa95a9dc8cd034f1a5af64db9e88f433cd098f69f67bff30f263ec6aea1ac5a259e86037689684f9d6331c6317e144464b366d5b6c891ca29f9585cf7f",
        "img\/app.svg": "0b8ce92127712a35f768f108379a7fd5ac34917f82e7e07fef69c2a06de9ea48459f256f446f9821e61d46ae4ea46c23b05bd07ca930e6e9d544916c68598260",
        "issue_template.md": "6fe48c7b7d6cebe70d020209e81af51a6bb073efa4d64f50f35a9c8a85859edf3a046d549ce1a4b184a8092db63e91c85e926d0045e501bac3794469a9d85c81",
        "js\/admin.js": "e4c5c869dc0c42fdf7678dc0f4e55ced1c0602c61de908b75e13ea8df37f053940a9326a4caa869397b61cb53c38381575e131db8609f8679e9a11b67a7bd65f",
        "js\/documents.js": "9cc1383ed4ce1b3f242a18e595656af233d033becb001a80ac4124568dd201979bb18cd5881e3a5687857677e7a672ae7de8b0017390a87c97e59bcc9814db9e",
        "js\/personal.js": "ccd43df7f2977fd07a4a6bee790870879c8fa3492e3c65e14ff0590202fc8e1c79123ec606349aa6a06d1cfb213d45d0a1798a7654cc72dbd12df0afccf35424",
        "js\/viewer\/viewer.js": "d3bd5c60d60cecd887130fd5e8feafa16d3213ca33f0d1c92458597da850537db7ccb19e55cfdec3c0ca11296f9228c8a2813823efb15dd21280ab7ad6f4dcb9",
        "l10n\/.gitkeep": "cf83e1357eefb8bdf1542850d66d8007d620e4050b5715dc83f4a921d36ce9ce47d0d13c5d85f2b0ff8318d2877eec2f63b931bd47417a81a538327af927da3e",
        "l10n\/ast.js": "e8e00a0ca6374cfcebcb4209a621a2a3180700d97058467251d0cd826b18ec7ef98ca896549810f7fd2087b0d91274108af45441ad991551a19d2b8d0a5a016f",
        "l10n\/ast.json": "3f0243f1a61e1b8bd75e74f1342724d93bef78da86fb6c558a6171cc0f506dc2b6dad28ce2796ba2ac9189ad860c7eae7a119b835d00755788e27070b2d5533b",
        "l10n\/bg.js": "409f108f8ed8aeb26d64d741fea742f989a3c04618e833a9ce25cc4a41f03f6ed3b4f828454dcdf3285d1316c8e9eafb1f360e034d4b88172f72c594418094f2",
        "l10n\/bg.json": "584c2e605c29b67e77ae2b82b3288f3e6f1548b53db1bd688a2469b84dcd003817bcbf16fe5abd528f2c70dbf1bb20f94e604d7f3a912eaea352cf2253857426",
        "l10n\/ca.js": "1b83f22085089f247c5423519403e9d04eba6c9a2cd953746ba1dfb5f01b5149a458044843835a460387f50b8118c383db4fef7f95843365401d832f9a358b15",
        "l10n\/ca.json": "a52155c275c339cb6b08d1480bfa3ea260b09d1f8407a107c6e42d41f95461cc077c47408a7d49b2f4cce106802e44364d264836c16d26e5469545b0c9dff781",
        "l10n\/cs.js": "85e5fb3c4d25f1a4e40ac6d7da21736a4bebee2f9c2684fe37a65c7917fbb50c669975d0bd0fdb331697086fb99ed964e767fe91297f990c62841e35c7920ad3",
        "l10n\/cs.json": "111da5eb7d6b3b898b2db83f4fb065ecf74cc71d534cf818e31aba83dbbaf9de1deeda281b39d1db8ce189978b7a2bb1563b46bf09c47f5cc45199ae58631296",
        "l10n\/da.js": "61fd048bd933c889f3c508cff647ba2bb991e55fc5325a8a3398dda32c9f26c8e4b6b331c1980e4e434924ba06e81142ab6637241246e2562235ae36110bf57b",
        "l10n\/da.json": "5ead3c5821dedc15ef6fed46355af5001389b62c59a50596a8c56d6d2c2ff73fec4afa806a29f876877f8e318342fa6d85f59a1f60ad57c2d755901eff14a9e2",
        "l10n\/de.js": "991081c4d9521d4974d28ba5768a5f894b5c49b9c2b5bdcfe5bf29f8fe5f840bb8cedd213269b5dab610e3522d2bd85b342d9222ac7047ee056e3011dc5d06ba",
        "l10n\/de.json": "2ace7d7e01f8758bf54c9b09ef22536160915b1fac0f81f9ad47a916c204d1d7b9fe170c57b0aa20e2bd72fea9109a813544ec135d7111a37a8b4085028a2e0c",
        "l10n\/de_DE.js": "591e35abca612f67e91a2d5e926b0a474c6bbd33ad3072c4d274f383fb71fc2f70896ac86c2d7ce581d50e8329b9d6f03046644133f1c294a5c2ca6d5ea376da",
        "l10n\/de_DE.json": "f7e98ba50c14fb4f6ac994511a378ad09d3812f78288c028e9a62d235e033158518ae1a37cd0742972099f5d2d459bdae82e9b14f25efdd03164153b467854b8",
        "l10n\/el.js": "9ca1908874feaa3237ec2a19e6ce29efa7db4efff0333dbd4d627d954e32ab7a527097f7825ff61c582650f7a25723b2110ab5722efe1589368a84b24f036307",
        "l10n\/el.json": "4909f0e139d2192d9b9bbb8216d955833760bddbf736b568328204a6a2447b7fda453fae066ab8978c7449db71b3987d5439a4fb298d58b8d030ccc4e43dedae",
        "l10n\/en_GB.js": "3b61ffa23e6c3650fc65edd40af4ab2864e52661b99784cae3ee46b3d6e8665dd67e6afc7bb97fb875373345172f7753e8537ca9b0c470b436a15a5ca89d28b6",
        "l10n\/en_GB.json": "80d3b3eb48af72dd656bc0517b2e06ac446e2e10c89a16f24c27b5e7f6d3ede5c286b0247fb03adae72b175a690e842d3e740fc9ac264fc65c54a4e17e3dbffb",
        "l10n\/eo.js": "30d76b857d498912f2f6e32ee52f02542a7ed835a1d1e6b52a6f6cf607e7b6c80ad2fe82c12fff9ae34ec0864a9cf9aa0b9f4ae29064ea897643bad9b9f36efb",
        "l10n\/eo.json": "436a977452f193f2e7c02ef347d40450d93c6928dd40bb6897ab6a998f25d61a4873b1f906a6c640b1b65bed9fb7c67244d1edcd705464c7577195135cc90d6c",
        "l10n\/es.js": "e982b457e4c46921b5947c68c48e014dc89cd9eaa96def2ee308435ad7a6df20880cabb739f87fb1a9d4c020f1c193dee4658e0dab4fefb9cbb9559531af9af1",
        "l10n\/es.json": "35652587bf69e9d99ec826425db93d82631d282af530bc2cbc9f182acf5cf551938156800a2e1c9ecfc6320173329c946612dbb1cfe0612d33bcf8ab8bdccf17",
        "l10n\/es_419.js": "edbea5581cd9366a9ccda49e276648230832b91ba8fe1bc5736226d4a56d17133e226c0a5c3596d68713e9b685581e1ec6e36bbb3e389159440d3d53b9354de0",
        "l10n\/es_419.json": "3a000d72ebb4a3a3f788cb6eb7664bb89bbef3c326381f7a1cae07436003b569cbc5fdbcbd18cf2d81c59ea6fbfa5af357d6a820eaa0bea8c2b0ec99f23ab9e0",
        "l10n\/es_AR.js": "50b148f11a861a8f6236ebd1dcb89dc200bbed2774bdb79db67680f2527f20dc37f9b01d4540b49b7dc5b93eb4f9c2898e3f268912e21d96b46c5df71786d065",
        "l10n\/es_AR.json": "a2155e1c9089bea43987431e2d6d887574db82d2d4ff69755e42fcbfe06c1285afcbeea4840db2fec7a8cac203fd1ab25dd9011adc37f457add8f62e32ab744b",
        "l10n\/es_CL.js": "ef1903d0f811cb98fef3a0babc4b24c7c7d9ad299261c658f4a7851d6b7206cee29c2985e24b33466110d5f896260a46f6935d4001920327425dd85acaffd052",
        "l10n\/es_CL.json": "dcc390d3bbf2c27bfca3bc10164d3a0d062f6dc35a444a12e1cd9760d41115afc78b88e925d087c552d222e1a34bbe9cf0d570a989c8a19da1a742ff25f4e8ec",
        "l10n\/es_CO.js": "ef1903d0f811cb98fef3a0babc4b24c7c7d9ad299261c658f4a7851d6b7206cee29c2985e24b33466110d5f896260a46f6935d4001920327425dd85acaffd052",
        "l10n\/es_CO.json": "dcc390d3bbf2c27bfca3bc10164d3a0d062f6dc35a444a12e1cd9760d41115afc78b88e925d087c552d222e1a34bbe9cf0d570a989c8a19da1a742ff25f4e8ec",
        "l10n\/es_CR.js": "ef1903d0f811cb98fef3a0babc4b24c7c7d9ad299261c658f4a7851d6b7206cee29c2985e24b33466110d5f896260a46f6935d4001920327425dd85acaffd052",
        "l10n\/es_CR.json": "dcc390d3bbf2c27bfca3bc10164d3a0d062f6dc35a444a12e1cd9760d41115afc78b88e925d087c552d222e1a34bbe9cf0d570a989c8a19da1a742ff25f4e8ec",
        "l10n\/es_DO.js": "ef1903d0f811cb98fef3a0babc4b24c7c7d9ad299261c658f4a7851d6b7206cee29c2985e24b33466110d5f896260a46f6935d4001920327425dd85acaffd052",
        "l10n\/es_DO.json": "dcc390d3bbf2c27bfca3bc10164d3a0d062f6dc35a444a12e1cd9760d41115afc78b88e925d087c552d222e1a34bbe9cf0d570a989c8a19da1a742ff25f4e8ec",
        "l10n\/es_EC.js": "ef1903d0f811cb98fef3a0babc4b24c7c7d9ad299261c658f4a7851d6b7206cee29c2985e24b33466110d5f896260a46f6935d4001920327425dd85acaffd052",
        "l10n\/es_EC.json": "dcc390d3bbf2c27bfca3bc10164d3a0d062f6dc35a444a12e1cd9760d41115afc78b88e925d087c552d222e1a34bbe9cf0d570a989c8a19da1a742ff25f4e8ec",
        "l10n\/es_GT.js": "ef1903d0f811cb98fef3a0babc4b24c7c7d9ad299261c658f4a7851d6b7206cee29c2985e24b33466110d5f896260a46f6935d4001920327425dd85acaffd052",
        "l10n\/es_GT.json": "dcc390d3bbf2c27bfca3bc10164d3a0d062f6dc35a444a12e1cd9760d41115afc78b88e925d087c552d222e1a34bbe9cf0d570a989c8a19da1a742ff25f4e8ec",
        "l10n\/es_HN.js": "edbea5581cd9366a9ccda49e276648230832b91ba8fe1bc5736226d4a56d17133e226c0a5c3596d68713e9b685581e1ec6e36bbb3e389159440d3d53b9354de0",
        "l10n\/es_HN.json": "3a000d72ebb4a3a3f788cb6eb7664bb89bbef3c326381f7a1cae07436003b569cbc5fdbcbd18cf2d81c59ea6fbfa5af357d6a820eaa0bea8c2b0ec99f23ab9e0",
        "l10n\/es_MX.js": "da3af1b0b8afbfc643a12709eb3daa34d0181d9739c158097fb9e96f0e64c23d54379ad7ea0d5b1767058e1a822e4098c28accaef674714b202232915ee355d0",
        "l10n\/es_MX.json": "fbb108109eedcb35c08561d0ce5b8f7d1c7c053b2478a82e200d2cd9fc7465a3ebafc227284af977b34bd7c59abfa5f35e102e908631bc5356b844e56bba130e",
        "l10n\/es_NI.js": "edbea5581cd9366a9ccda49e276648230832b91ba8fe1bc5736226d4a56d17133e226c0a5c3596d68713e9b685581e1ec6e36bbb3e389159440d3d53b9354de0",
        "l10n\/es_NI.json": "3a000d72ebb4a3a3f788cb6eb7664bb89bbef3c326381f7a1cae07436003b569cbc5fdbcbd18cf2d81c59ea6fbfa5af357d6a820eaa0bea8c2b0ec99f23ab9e0",
        "l10n\/es_PA.js": "edbea5581cd9366a9ccda49e276648230832b91ba8fe1bc5736226d4a56d17133e226c0a5c3596d68713e9b685581e1ec6e36bbb3e389159440d3d53b9354de0",
        "l10n\/es_PA.json": "3a000d72ebb4a3a3f788cb6eb7664bb89bbef3c326381f7a1cae07436003b569cbc5fdbcbd18cf2d81c59ea6fbfa5af357d6a820eaa0bea8c2b0ec99f23ab9e0",
        "l10n\/es_PE.js": "edbea5581cd9366a9ccda49e276648230832b91ba8fe1bc5736226d4a56d17133e226c0a5c3596d68713e9b685581e1ec6e36bbb3e389159440d3d53b9354de0",
        "l10n\/es_PE.json": "3a000d72ebb4a3a3f788cb6eb7664bb89bbef3c326381f7a1cae07436003b569cbc5fdbcbd18cf2d81c59ea6fbfa5af357d6a820eaa0bea8c2b0ec99f23ab9e0",
        "l10n\/es_PR.js": "edbea5581cd9366a9ccda49e276648230832b91ba8fe1bc5736226d4a56d17133e226c0a5c3596d68713e9b685581e1ec6e36bbb3e389159440d3d53b9354de0",
        "l10n\/es_PR.json": "3a000d72ebb4a3a3f788cb6eb7664bb89bbef3c326381f7a1cae07436003b569cbc5fdbcbd18cf2d81c59ea6fbfa5af357d6a820eaa0bea8c2b0ec99f23ab9e0",
        "l10n\/es_PY.js": "edbea5581cd9366a9ccda49e276648230832b91ba8fe1bc5736226d4a56d17133e226c0a5c3596d68713e9b685581e1ec6e36bbb3e389159440d3d53b9354de0",
        "l10n\/es_PY.json": "3a000d72ebb4a3a3f788cb6eb7664bb89bbef3c326381f7a1cae07436003b569cbc5fdbcbd18cf2d81c59ea6fbfa5af357d6a820eaa0bea8c2b0ec99f23ab9e0",
        "l10n\/es_SV.js": "ef1903d0f811cb98fef3a0babc4b24c7c7d9ad299261c658f4a7851d6b7206cee29c2985e24b33466110d5f896260a46f6935d4001920327425dd85acaffd052",
        "l10n\/es_SV.json": "dcc390d3bbf2c27bfca3bc10164d3a0d062f6dc35a444a12e1cd9760d41115afc78b88e925d087c552d222e1a34bbe9cf0d570a989c8a19da1a742ff25f4e8ec",
        "l10n\/es_UY.js": "edbea5581cd9366a9ccda49e276648230832b91ba8fe1bc5736226d4a56d17133e226c0a5c3596d68713e9b685581e1ec6e36bbb3e389159440d3d53b9354de0",
        "l10n\/es_UY.json": "3a000d72ebb4a3a3f788cb6eb7664bb89bbef3c326381f7a1cae07436003b569cbc5fdbcbd18cf2d81c59ea6fbfa5af357d6a820eaa0bea8c2b0ec99f23ab9e0",
        "l10n\/eu.js": "08f28eee3005a75a8923063aad669534987730e31ce151a2fc51978e9efa1015cda7405a61af6901134ede0d27188b9b94a96d45f0c518751931f182ed3c2159",
        "l10n\/eu.json": "7de4b7a2f2984a33edcfdaccb287360e2dd7e119fa90ec044e0e283b5d15dd9d922bf6d9432ed951fdd93a2c9e844ecdf877b78969da53d0b9c178b93cdaeb58",
        "l10n\/fi.js": "cf90af5350c018eea8194485d108ba52f3f4b6fd12e5878404c0c7c6c2acf61a13954f226768b5eeb5fc75cccbf2a85a1eb2f4684c7883693c0f4becf3fd7489",
        "l10n\/fi.json": "94217b5edc6a6aeb21bba675641c5d41fb18a99ae3e1d02f080af813e7d02dc05f21c9399e84005480d776625469b5a7c5fc7aec69cf5bce92c09bc5aac1d262",
        "l10n\/fr.js": "a9e462f71e0d2bbf20162ab5b7307953cc19e2dd72b8882b824e540a955360a27d554dadfcfc1687ab77038a692f845a30af6d1d53db1caf0b1455ccf84d47b7",
        "l10n\/fr.json": "14a552221ba72a76135f6de4fae1036fcb0482b945c3875a7427d8cf7c7005d6e4060ee28eab59b439a29b129d19822ee7a07b2e5a0a5f34a74d321eef0b8816",
        "l10n\/gl.js": "c9fc62fa3661feb412772435827556a09ce213268e0cba76ab1e690ea580ffc5d47eba8b1590e10d5c01f283c46a719929a3d9faf3593828f7b615aab9c7078a",
        "l10n\/gl.json": "8448b9e742ba1935433b001a0fa73ed0fbe934cdcf988559f109d54772a61cf71d780d1c67a38a7b54d0b555bb59e481f359f33894780a8bd4081217f42ced3c",
        "l10n\/he.js": "38e4ae67053bbebe2c1ae03b67214e623e7a06a0b19d8f9d486010e70ed644ba9a27bc2de08de1e37f2b8e9bcab7731d86260400bf096d757f11d359a96d552f",
        "l10n\/he.json": "0a5759734489716c49022157f0e0398764f9105b0b41398f9e42f5938e0ad6e6e661532ea0416a226243e16e8ac45949158ac07fcdca6bf1cec2ed867e3266aa",
        "l10n\/hr.js": "062c87113d20ff9a1e22391d8c9d96d249e21b2a92eab5e65be5ec442f2077df66a165dfa4395bc15c427f123a362be7bb2cba61730cfcf249d30efd4731982e",
        "l10n\/hr.json": "b9b734580216d571e557a121bd14a34c5a85df19023204623ced711795b30ee20f2f69229cdae887e35dd0b697c495c97719eddf369bc7ce421a3b6ec22b9923",
        "l10n\/hu.js": "af88f8169f79295c7f9e23908a8cb3857d2bf95acf8e81b909a6d95d17d684fc9ea9192861e253f1ed91726a5a09c3a698046b4c0f8fc4aaaea64af4700648aa",
        "l10n\/hu.json": "5574ab56533274bef9f431fc56f4cc351750bb65a1d3b767265dc43eb66f476d78371a80f19103d8850cf2966cb5197e681dc7d44d691b75f3f65cb5e0ccc206",
        "l10n\/is.js": "027ba8a857430c2e4ab395bd11a64f071781102ae54082769211028600249bcd74f13ee3caf91beb03b06895ce9f41b946cf8d2190afe73dc2445b4f90e0dab3",
        "l10n\/is.json": "b59e39eb00307cc688c4df90512e05d7282cf9ce7c8595b114722763f07a0309ff859fe8de7b34a0a82c8a84ab5f559c9e8624b6fb352233cd33bfdf51df68ef",
        "l10n\/it.js": "f8374192835e19761ca8e9b77590bb50877c53959b426d8a2f7cb099bfea0ac44d72aacf47b63e82656134df93b0a48f6e7fa75ac61012b229c8579adc074f40",
        "l10n\/it.json": "05680747a81167ade648eb4376835e85345e177f990a96fc2d3df2e4be6601692abb9f0fff68cbbcfde034c2c9717fe6dab48374711c6b9d0d0863bdee19a39b",
        "l10n\/ja.js": "dc165c881078fd0d4534bab33610bdee36504315cb28ff5a30f1db943075f8af87ee8ff5bf62f045d7a987d0eeb9db4a6c10c3cb55e95fca120cf6158bc907ee",
        "l10n\/ja.json": "62ae6c2d59ab2f68f68c1f9a1f8f0d52b3f342ab2217185321ad3210a8c07741b2c09930a561820d87b649a48aed7dd9291bd35538e262ea6ccb89dda4be2c71",
        "l10n\/ka_GE.js": "86b0ef88d2e03ffab9ce02c42902f360cfd995a74db066442b370311eba961382823d475818e3578cc9290adfb9b9aa5364a53b70bdf92982ae11f8d263a5e7a",
        "l10n\/ka_GE.json": "1e09d01e3c01441e6df2705423b50c269a5443bad5f5568d4855f3fbd810b364bb8c8718d49636ebf167c069ca8ddddac6faa810887192fb1cfbd5368dd12261",
        "l10n\/ko.js": "e6eebfebb6c6325861c370ec25e1b58943b0caf0ec7a8c6d6b63f92af7358de16af43721832d6f56ca0c7cae1da0e5aa14153394b21502d5220330b93614d85d",
        "l10n\/ko.json": "7c2a147afb2637bab100eccdced972a01355894f6fb002046549285d607fdd8702c7566be464c53d7628f4a8b886f7cd76f44e9ddb19e4ff49b74606c6614513",
        "l10n\/lt_LT.js": "4d27d49869a1ce33b121dff3b12efe1046557361aff8a9d3869ce1f21b129ab15f86fc02e64b182de034ae755bcef77888f9065b2a2ae46d177a1ed22dfc2bd4",
        "l10n\/lt_LT.json": "335d0f5384c5f211d1484a1753e987dc546908fe773782a50a09fc25dc541a7c3fd4f3307d4f8d080df22c440f31fa033ec91e417643b5a8c1aa8533a5cc2393",
        "l10n\/mn.js": "5cc6aa398d84127035a86c6e5b10e20e561e5e7cc7a0d2fbf3754f4e5b04a14b4c8ec9378594b433e890a758b0c20fefe58a11bedd38d63e38780eaaf42a5f47",
        "l10n\/mn.json": "f1fa36fbc5653cd3c61f19a7bfa20a36be3e3d74ffaa377493ab9b74e282a742a242a7acc481688e7b15fc9bde8849777231ff73c3c85a30bb961d339ff01c01",
        "l10n\/nb.js": "919783d16ce48a95ac0ae2a48bd85a46f4eb09e05bdafcfd02fd383d3ecf467589d69d9270eca31da9b4b6eafbe7c59a6134acdcb0c53969fa6e445e9f7fad85",
        "l10n\/nb.json": "4bb56145c13fb0b06c3b7ebde901ddb75963224a62fac733169590fbd5ef95fb29905a724cd41038a757b3e2ef3bcd689a2262455a0e07229a1c07f7c79f37d7",
        "l10n\/nl.js": "44fec67b720953c61b5b4055d7b9ae74dda886d6a0e14bdad10a61a1082dbe7efc77e7eb536443efb7c95ea6f947e9fed67ffd50aba03591726eecacfac6a3e5",
        "l10n\/nl.json": "a699136723c195f3886419a694accb2c9abd7c970b71111fbf3507278e4ec3e868b1f369040126ae0ab22b7467939442bd236b2d33aba07425d615fc4bd466f1",
        "l10n\/pl.js": "95ce15dd20778986016370e40de6ee1a17ef42bb30c2dd992636de64a1534c3b4544860f838fe352065a2ec624bfc8d48f0b8a5b75bac9f55e87a38f12613c61",
        "l10n\/pl.json": "6752251f39f88e826f1b4ddc6f5aae10ce24f3d998d0f5b8aec84c95cdade3d5b14ff80424d12b9bcde796fe169e0739ba662540a76ef8d67f9ff834c24cad95",
        "l10n\/pt_BR.js": "ef7aa4ab3f5d922a02b2894c2aa40636a94e45c355ca77e08f52215db291884e9bedad1b0e318bc6d7e42498b62db4ef4926dc0aa234fdfd3856b288e3a250cd",
        "l10n\/pt_BR.json": "783e99e53a8b8845f196c5d6c0a44c819b8404463b815be2a73904c2e85449855682ce836bfedbf43232a1f45d0e3a9045c8c736a326052cbbf2bb2db9666943",
        "l10n\/pt_PT.js": "a94e896f0994afd8e0fb048daf9be2e73ffdb1e23ac940fee11ca8fd4e1bf3a3caa4db0d7f3fbeafe9b5dc19217b694af5c4c39cac0faadbbc64a8e62a7d31d0",
        "l10n\/pt_PT.json": "445c2a9092a2440af805f767df5fc4b505a145dd8811d831bd51556f08148e0e17d7e8cdc5d8022ca353a8a57b648f9f44add9997d3673375a59870bcb9a0cfc",
        "l10n\/ru.js": "9c2d07b521d40efbd511318357fec769dc2fb1b1dfb341da8468e6b106a9d423da09d17f1cbb56bb19f2269ad4e0670bc4c23abe256ee4211a0c4a613551caa7",
        "l10n\/ru.json": "6cd096671e0a92f0208d4a5b2a364737f4c0219a4473f27a2fe32159e45ed5b3c0513349776fc174b83aeaee7184fb785edd5e9b6958fee45d8b8263d65f383c",
        "l10n\/sk.js": "f7d9d3f817d1c7480484ca03a593f56edf135a11be69e4cae8ea14e202d1d59dbc0b87abc35e182d4507e4a7902a50b7d0f608a3ecfd9a11f8ab732841058358",
        "l10n\/sk.json": "db5c89b90ec04498c5bf7053a1ea4e6378c886fd31850cac34ab15829702c1d0e3e3fadc3cdc20005a4973eb742b6109cdc0ffa1c82dae941e34efbc58be2915",
        "l10n\/sl.js": "e98b5f1225a941fbdf90a8a2946fc37019806a830c0bce6b691ba3efb0ff660dfbcad386f2206730c97705fdf29323f422557cb37588a9d0aa98e1f6b4eb13b3",
        "l10n\/sl.json": "ce938596fba6da51e4f7d2081b49c01d68647e700615f17e99b052b374b42b722c04acddd9b2f59b983d5f1905695145b4029c1cc91906f1f73ac1e08870f94c",
        "l10n\/sq.js": "4a014413c26a6b13a6fb5ec96067c27e9994d6165a6394398fd68c706381fe19d57accce499935a5cc5d704c760f56fc51e5abb39299bc0925cd03942b21f0e5",
        "l10n\/sq.json": "039d45bf3e76f16f334ac50a82e2c20d454e052ec5ac33796b0fc00ff5190aa6154f35d78755807a1d8073213122241102c1e706e424b46f492aba1798fd483e",
        "l10n\/sr.js": "53d7fe8b30d89d0a73e35707278bafa7aebb352606f926667c50c4a738bae068e60dbbc254247b1f2b8a1c2427aad9876c2e567c47664ca71fd071651cefbaee",
        "l10n\/sr.json": "8a4e281884cf464fa9348d94c395c13730cfa806639c561318b0e165f57b50b04fbcb3d78fb38895e90cc2f7d6c3052818405975ac48d01521827734b7b00932",
        "l10n\/sv.js": "2b95202fe5d9cc3101a4b60d4219e45dad65217b0fa00b46bb336d019a9d4a053488946229b4b827c0459226fcda47eb6b943865da305a1cdfbbd1b11b94b4c5",
        "l10n\/sv.json": "accac1da64a0fe0119886ff13150741e47f46e56deef6f0684c5858fba74bf7f313d475002601ae49e3af89ee07692ed0a59fa73757d985275a67f8415990ec9",
        "l10n\/tr.js": "c07776e9d8fc05f7b1b080967182fa1d83de3bb6692d27f3e9042c12657da9928ec26289560fff4f02095e872f44f258dfa22491bae1357303ad8107f7336d32",
        "l10n\/tr.json": "b1b24e79932e6441c659859015b37e2ca33971425325dfe650d4bcc7e140b83472a914544d352a669788bd5d2204e32ed1104208b161f9ad5e9e36e7b42d2375",
        "l10n\/vi.js": "5149c71d7fd8a80cffe2fe7940ed3cc201ea92c567f34a80b093ff8fe5bb506c17bd739f872681514c96585d8001d0cadee2dc668b7e6436a62af5937244f4f3",
        "l10n\/vi.json": "3222c7027d48602e4ad6f55fef6174cd211e2c1f090f1ee07a091718ee11f770eb83d9054f2fb39c2060e77c1776ef8abaeabf2ca590d84a6eb3df22ed3ce982",
        "l10n\/zh_CN.js": "76ff59b77704dcf7a2e4e371a518a6b713bc210704cd1b54ebffaf797e1ef4b03f3ff0e847faa1c5ed8e5b118890c75177c3ebd1f5d3f9f63268a6c7f98d766a",
        "l10n\/zh_CN.json": "d6663239a941e9deb82566ee449386477509af472f17c3b49882165bc778810af8d199bcf86e19afd33c0ff48c7e20a473ea5c1b4b46caf9af8df29e19ad6cfd",
        "lib\/AppConfig.php": "076c0cd7f41075e470c792e9c155c58460e889798f81b762a6bdd286df483cf4fe8cd30f1ea72f9a5f7e6fec91d986340bc3e7e60723147f25b14a83a264c757",
        "lib\/AppInfo\/Application.php": "f6d0cd2ce6b7c8e6873254f5465b96cf8f2604a82023b240b7ba3df0ff56ccf0d9d9a0308a3298ec853d589ef59c83446f26e6d131cb163d35657670eed746e0",
        "lib\/Backgroundjobs\/ObtainCapabilities.php": "01e799c400bc7ace308b701314d01fa865a2f280938cd35487a0ea5ceebb258be4616a6888b435ea9380c794611191df3657801bef9ccccea48e993315636b41",
        "lib\/Capabilities.php": "7081a519fcdc484ec17f7a3f53ee2aa83cc31681e56c4b0a56c54f9ce094dbd4c894783a6947d83ee8b8e51649ee064301097e90940ca6d3ab77136fea20f548",
        "lib\/Controller\/AssetsController.php": "fc347e24f21acdc7ed4b986ac3dd06560eb1edb9c6ac9b31e4928441e0470c74fbc591f6e8c932d595e3c1520ba21de96560a083624280cd4b85892c6676a527",
        "lib\/Controller\/DirectViewController.php": "9c3c1c64a26d6ab18d6706bb375ea67635a708b2519730902f89149f5e936871fd96c56d432286be6130657e5d8d5bbdc34d3641ee80d376c67ab29da12c5441",
        "lib\/Controller\/DocumentController.php": "e8711ad9c6dfb673ae7e4182e5acfea19e96e37a0be07d185ad0069ec70bd2b0925670158ba39c21529a98fb0d6eb5d1660c9894270d93c2aa518cf14b5361f1",
        "lib\/Controller\/OCSController.php": "f60eaeeceb0f8be394eaaa993dfab55e5172c3d1680e6b7dc3c7ae04351c201e37ae850222a28ff8285116ac8c93f9f73eca8fb5a1815f49e48cbf9e97380616",
        "lib\/Controller\/SettingsController.php": "3f0b139ee93d87d58f304aef8ee24c955a23f1f872244d9ec12159950483779efc938af7277f0d0efa7a3e7140ba77ca92d8433cb457ca2f588cf997b7bba757",
        "lib\/Controller\/TemplatesController.php": "cd1223bd5de76e4659df894b42f461665fda70be0cc1f0f30288cc482bb84a7e0a236eebe26a8072d8985d6cfd768184caf6dda1c2fac7df062390c418fd5492",
        "lib\/Controller\/WopiController.php": "859ed298bd985700e5ed35203a005e40c3621bb6b8be1d07c7b6dc64e36ad20aaaa4fa86c1db811c47f2835343480a1f8df9f80ea899a4e29a21793f3a9e47f4",
        "lib\/Db\/Asset.php": "d447308d36a29a08239948fdda1f5735a9292fd41621fcb00bcc7de25c6421d35c76a2b47109c676af92aecdd6a8e73fa6d76a49cc7d79c7e4129be36ee50aad",
        "lib\/Db\/AssetMapper.php": "67322f15462ac384c163da70340ac06337e37684333d1d7ef61cb9e7fa82fd97b2d2eadb7ecbe3d413ae7d4eba35019bc8fd93a84473858d497563873b8adbfa",
        "lib\/Db\/Direct.php": "8f3597346b67b016d66dd523e08060904dd057a1db21d7397d6331ff12783b27f40e27b5fc2a43a59bf0bea2dbdbd9327653d87b8d2ac53e4e741ddc0111393f",
        "lib\/Db\/DirectMapper.php": "18e7aed839ebc00f47cb63ed0cb8ee3a065a05cd5bddca97cd5747707141e3d9c1994c5f423edf8a7f47dc52b39c0445c8efbc33d6737943fe32acb2ba9ec24d",
        "lib\/Db\/Wopi.php": "9105f589fb754166c049f216d8b0167c659df1da30e5be0e91e7b02e45bda231f736e224c1e7016f62f32ee270eeeedaa62e0040414ca678a7e8421086bce354",
        "lib\/Db\/WopiMapper.php": "aed6cb151a44fe24711c10cb095e97ed13eb6dd21c84cc14896f6da362840165e83b76ef90f28914e82f17fbbaaff477e7591648deda3dc824a7bce82c730380",
        "lib\/Helper.php": "ac5c5ae00fbab79b526834d9e96f4df1baeda34ad95fe07bf52a7a19aa1a245c9330081a71398ddf079c04550c688555bb7a4f6350febc4b546e6d60227fda9f",
        "lib\/PermissionManager.php": "24d90405c2f5d9000dbbabeb542ec8c053f5b43f16068a05b40e11a995958539b52702253a69600114be85afa082b0ac5c84c3504bc327a81e85ea31b30a2ff9",
        "lib\/Preview\/MSExcel.php": "8f3e1cf0fdbf24b0ad9d2c4d1e6c50cda5c168d996b134a51acc6b1f5c0136370e5da2db26574ae60ef15b76f8190c621b03c019596dfd7a8f9c5bd7cecd38b7",
        "lib\/Preview\/MSWord.php": "9ecb8a6ed1a93c4d9e7424074efe82db4f1da8a69b07cd30b73814b56ac119e144b42359646cd80ea05e325d5b341caba7bb8247d3a7c6bb9076ba62e35b8e50",
        "lib\/Preview\/OOXML.php": "a6de6d87f9a0d46d57b292e742303f83105f4b896dfd3d21fc9bbc1547aca0b14d42e9487b7a8356064883d9855fcc922a6b4953bfbacc4646a89e7795145290",
        "lib\/Preview\/Office.php": "8ffd976ae0fb46f14fb465f045de0cb87b95a3acb90b5169e473f8f251d1e811d255ddf9a71dbe17b7b96f5f47888ae0d20de1680c91f246f5470791c484aaf8",
        "lib\/Preview\/OpenDocument.php": "5215e1f80f84e342fcd7591b904521bcc95fde058451a73aa4e6b237b426cd52d3b7b6f7194a869e54ce60cc913a5174a9ee4fdcdc6d0d0eb706cd840bf367d8",
        "lib\/Service\/CapabilitiesService.php": "0bd3f9877d82c9455e093292edea50274a9ad64f4363f348a83f14a8a5a2062647619f6d4f02f748dee1093549cb358d9b345c410faf61507c652cc3141215c1",
        "lib\/Settings\/Admin.php": "804e0d7753d8f29f6d753c543498683f3bc837406c3cd488212b03f5d7db5a0de58f890c0566695f814fa5dd96c18d64160f35db86891a0a8b347109928edffc",
        "lib\/Settings\/Personal.php": "2e3b2cafde22945fbdd5b8d573676ca68bc22cee4c0ade6a361656575db948107f9b2449323b22043a0f3daa8c03061b45f1f4ed3a4ae8f0aea138ee55ac8133",
        "lib\/Settings\/Section.php": "77f829f7658037ac19b056e25032eb6fd62fc53d9dd2d47acfa76c6dd45d23533415944760a21ace795055d2817748b3c85746db94cfe64656de37af8b3e55d5",
        "lib\/TemplateManager.php": "4030c4574793f7933a8ff5aa7e7c9cf4e5de995ba60745e21349da193afc5cfa2a93618965a8ff47a7931c3498545a0c1b415351b1d43b5113a2f86b037925a6",
        "lib\/TokenManager.php": "c068757f636165908ef806d0e5bf1f7aa933066b8e4fcd504ca21705c1f80a1ed0ce4428d63c9d5cfba90fa10d402adae92acef6406f6667d446f2aa5546de54",
        "lib\/WOPI\/DiscoveryManager.php": "2cfba84326ca38a494c4d3da641e410c4db661d5ba580ec13f38bdf7a19eb9f5eb9c3ef99c36cc7ee1b430bd87c6f5993bdb6bf7a1830a95f481d60c435c9885",
        "lib\/WOPI\/Parser.php": "9dee5374e9c7e3ed9372c7e355cc013a5e0c3aed0be68e0cbed46a88e5a0224ad771bb54e0439351ade35a768384580f227e96a243612e0a028987d9d7933071",
        "templates\/admin.php": "99ed08836b894d01e1f93cccf19dbe749d6f7eec24b43418eefa20643422e6e80b7d19f16530205ba0bc1b2a6cf8cac91f35f3d13dd1c9e0b9769864452200ba",
        "templates\/documents.php": "009bdb253c015f782896479694bc6fcc476aa4584b17303acd6070cf36048c90cdc28c62aa7e15f5350b189ad1063374ae1309674728670e70439c20fbdb6adc",
        "templates\/personal.php": "cf726d7ce365c46dc90d021b89c79cb7d748af53632375afe0b550d9e8a171e801453148bace8ecce77405960f8550dde6c6659eeed694f78cbaba5befc1ffef",
        "templates\/public.php": "bc76f31fd884bc41552f4253e8d3f469c06344597122899ed5be5878ebddac1555aeae8c8123760e4abab8f573b6b1bb3465a90a94a4c5d041a6df152db1b5ea",
        "templates\/templatePicker.html": "900c26f49f244efc3fbcd0de0d8e0f2e852cba90ac62a5bd604c5ff99687f0aebe0bbc763c49f296b2170c2b3e67aea2e0ad99360825fa83b3d44e814b0af9ed"
    },
    "signature": "ANKJq23AkPF77wW\/o1S99XmBEpLJoJVscyvPJrk1+fzE75r+DuBseAXFie3\/1mSOxOdADqCTGPZmZoOfc7rXSKNe5JgZqWh6bQ0pK9QEyo1P5eN1UFhYIsJa98lRhUMQW9\/eO9f6r1Omr3v4i0Mc2uhb24gUt9sIkgxYN7ifajrofHd+WGMFsSSNS9dWKS9WmKw8NhtfxK7ghmThR4ltpDcEzYnM7UPpArsMpZZFCoa3WfuX9gK8E+uku++sfVmPyRqNrcmY1sdrnXzmv132bGsl5zo6uWhinVKS1ieNxp1KN5tyxEk1Dqkmjbq5pQtqfOsxMav7S\/BIoRhXXc0hdw==",
    "certificate": "-----BEGIN CERTIFICATE-----\r\nMIIDCDCCAfACAhAZMA0GCSqGSIb3DQEBCwUAMHsxCzAJBgNVBAYTAkRFMRswGQYD\r\nVQQIDBJCYWRlbi1XdWVydHRlbWJlcmcxFzAVBgNVBAoMDk5leHRjbG91ZCBHbWJI\r\nMTYwNAYDVQQDDC1OZXh0Y2xvdWQgQ29kZSBTaWduaW5nIEludGVybWVkaWF0ZSBB\r\ndXRob3JpdHkwHhcNMTYxMDMxMDg1NDExWhcNMjcwMjA2MDg1NDExWjAYMRYwFAYD\r\nVQQDEw1yaWNoZG9jdW1lbnRzMIIBIjANBgkqhkiG9w0BAQEFAAOCAQ8AMIIBCgKC\r\nAQEA1jk29m6JykcJ2Ld0YEpjPMYh6kwxY6GysNJnfkA\/th7tPWL3+vBJ9oTYyVnZ\r\njwAE1Cqwfa9MyBKMZ2IdfIqtT8PeWzuFP7Ib942EdxUpwwh9F3lykeGsj0h4zQwX\r\nF9OooiS99PfLX+JpkKm15Ujb00iLB6xQmq0+3NeOT1CTD1ziJ1ueOcxBKMwaFp2a\r\nPuz3F5ywqCvpmxG\/OBuOs0LI3\/zStXhBNbUMxBrWblr7zaVNJXl\/I2JCKj8Wah\/H\r\nXUEEGbW15fAUP1f+90eQSxpEoCZDBHXOQCTJYzySGv+BjU+qlI9\/gS0QbrsiyzUf\r\nO5lyvi8LvUZBzpBw+yg1U75rqQIDAQABMA0GCSqGSIb3DQEBCwUAA4IBAQA9jU3m\r\nZmD0ywO3MUsG\/GLigFtcWi\/p7zp2BliR+NpuY2qNFYDcsIb8ZUudmUc\/cJRRctzy\r\nAPaLLj\/d+h5RFaxjTVvim1PSe6M7urK\/IMSvyUVYCeQRYpG8ZJixKTCOVIBaWHMz\r\nxTfc51tm9EPlpJpK6JtaWrYYoWGE3k9sINdJ4JkvKkE2CBAqVhX6ZGyEQ0bnEhtk\r\nRu1DXn+LW7TJ4NZ8VtLWvmW\/6Kfmi7dQ1V++Kmn0lO5ntRt5altePbStCHC8bhGp\r\nmyBOrjhrJgLIwvgH26MYZhdiSkFzoE38nMPZdrUmUDxcPCwucWJqgzDPudguFthj\r\nWCVZ3TTG\/2z3+tWM\r\n-----END CERTIFICATE-----"
}